transcript
# //  Questa Sim-64
# //  Version 10.6b linux_x86_64 May 25 2017
# //
# //  Copyright 1991-2017 Mentor Graphics Corporation
# //  All Rights Reserved.
# //
# //  QuestaSim and its associated documentation contain trade
# //  secrets and commercial or financial information that are the property of
# //  Mentor Graphics Corporation and are privileged, confidential,
# //  and exempt from disclosure under the Freedom of Information Act,
# //  5 U.S.C. Section 552. Furthermore, this information
# //  is prohibited from disclosure under the Trade Secrets Act,
# //  18 U.S.C. Section 1905.
# //
# vsim -i tb_adder -L /package/eda/mg/questa10.6b/questasim/uvm-1.2 -novopt 
# Start time: 21:43:48 on Mar 23,2022
# Loading /tmp/socet67@asicfab.ecn.purdue.edu_dpi_83367/linux_x86_64_gcc-5.3.0/export_tramp.so
# ** Warning: (vsim-8891) All optimizations are turned off because the -novopt switch is in effect. This will cause your simulation to run very slowly. If you are using this switch to preserve visibility for Debug or PLI features please see the User's Manual section on Preserving Object Visibility with vopt.
# Loading sv_std.std
# Loading /package/eda/mg/questa10.6b/questasim/uvm-1.2.uvm_pkg
# Loading work.tb_adder_sv_unit
# Loading work.tb_adder
# Loading work.adder_if
# Loading work.adder_nbit
# Loading /package/eda/mg/questa10.6b/questasim/uvm-1.2.questa_uvm_pkg
# Compiling /tmp/socet67@asicfab.ecn.purdue.edu_dpi_83367/linux_x86_64_gcc-5.3.0/exportwrapper.c
# Loading /tmp/socet67@asicfab.ecn.purdue.edu_dpi_83367/linux_x86_64_gcc-5.3.0/vsim_auto_compile.so
# Loading /package/eda/mg/questa10.6b/questasim/uvm-1.2/linux_x86_64/uvm_dpi.so
run -all
# UVM_INFO verilog_src/uvm-1.2/src/base/uvm_root.svh(392) @ 0: reporter [UVM/RELNOTES] 
# ----------------------------------------------------------------
# UVM-1.2
# (C) 2007-2014 Mentor Graphics Corporation
# (C) 2007-2014 Cadence Design Systems, Inc.
# (C) 2006-2014 Synopsys, Inc.
# (C) 2011-2013 Cypress Semiconductor Corp.
# (C) 2013-2014 NVIDIA Corporation
# ----------------------------------------------------------------
# 
#   ***********       IMPORTANT RELEASE NOTES         ************
# 
#   You are using a version of the UVM library that has been compiled
#   with `UVM_NO_DEPRECATED undefined.
#   See http://www.eda.org/svdb/view.php?id=3313 for more details.
# 
#   You are using a version of the UVM library that has been compiled
#   with `UVM_OBJECT_DO_NOT_NEED_CONSTRUCTOR undefined.
#   See http://www.eda.org/svdb/view.php?id=3770 for more details.
# 
#       (Specify +UVM_NO_RELNOTES to turn off this notice)
# 
# UVM_INFO verilog_src/questa_uvm_pkg-1.2/src/questa_uvm_pkg.sv(215) @ 0: reporter [Questa UVM] QUESTA_UVM-1.2.3
# UVM_INFO verilog_src/questa_uvm_pkg-1.2/src/questa_uvm_pkg.sv(217) @ 0: reporter [Questa UVM]  questa_uvm::init(+struct)
# UVM_INFO @ 0: reporter [RNTST] Running test test...
#                    0 Starting sequence run_phase
# UVM_INFO monitor.svh(34) @ 0: uvm_test_top.env.agt.mon [MONITOR] vif.check = 1
# UVM_INFO transaction.svh(34) @ 10000: reporter@@tx [TRANSACTION] a = 0000, tx.a = 0000, b = 0000, tx.b = 0000, carry_in = 0, tx.carry_in = 0
# UVM_INFO monitor.svh(34) @ 10000: uvm_test_top.env.agt.mon [MONITOR] vif.check = 1
# UVM_INFO sequence.svh(23) @ 10000: uvm_test_top.env.agt.sqr@@seq [SEQUENCE] Send transaction to driver
# UVM_INFO sequence.svh(24) @ 10000: uvm_test_top.env.agt.sqr@@seq [SEQUENCE] Sent: a: 1001, b: 0110, c: 0
# UVM_INFO driver.svh(32) @ 10000: uvm_test_top.env.agt.drv [DRIVER] transaction received by driver
# UVM_INFO driver.svh(37) @ 30000: uvm_test_top.env.agt.drv [DRIVER] Driver: a: 1001, b: 0110, cin: 0
# UVM_INFO transaction.svh(34) @ 30000: reporter@@tx [TRANSACTION] a = 1001, tx.a = 0000, b = 0110, tx.b = 0000, carry_in = 0, tx.carry_in = 0
# UVM_INFO monitor.svh(45) @ 30000: uvm_test_top.env.agt.mon [MONITOR] New Transaction a: 1001, b: 0110, c: 0
# UVM_INFO predictor.svh(37) @ 30000: uvm_test_top.env.pred [PREDICTOR] 5 bit sum: 01111
# UVM_INFO predictor.svh(53) @ 30000: uvm_test_top.env.pred [PREDICTOR] a: 1001, b: 0110, c: 0
# UVM_INFO monitor.svh(34) @ 70000: uvm_test_top.env.agt.mon [MONITOR] vif.check = 1
# UVM_INFO @ 70000: uvm_test_top.env.comp [Comparator] 
# expected:
# a: 1001
# b: 0110
# carry_in: 0
# sum: 1111
# carry_out: 0
# ~~~~~~~~~~~~~~~~~~
# actual:
# sum: 1111
# carry_out: 0
# 
# UVM_INFO @ 70000: uvm_test_top.env.comp [Comparator] Data Match
# UVM_INFO sequence.svh(23) @ 70000: uvm_test_top.env.agt.sqr@@seq [SEQUENCE] Send transaction to driver
# UVM_INFO sequence.svh(24) @ 70000: uvm_test_top.env.agt.sqr@@seq [SEQUENCE] Sent: a: 1011, b: 0110, c: 0
# UVM_INFO driver.svh(32) @ 70000: uvm_test_top.env.agt.drv [DRIVER] transaction received by driver
# UVM_INFO driver.svh(37) @ 90000: uvm_test_top.env.agt.drv [DRIVER] Driver: a: 1011, b: 0110, cin: 0
# UVM_INFO transaction.svh(34) @ 90000: reporter@@tx [TRANSACTION] a = 1011, tx.a = 1001, b = 0110, tx.b = 0110, carry_in = 0, tx.carry_in = 0
# UVM_INFO monitor.svh(45) @ 90000: uvm_test_top.env.agt.mon [MONITOR] New Transaction a: 1011, b: 0110, c: 0
# UVM_INFO predictor.svh(37) @ 90000: uvm_test_top.env.pred [PREDICTOR] 5 bit sum: 10001
# UVM_INFO predictor.svh(53) @ 90000: uvm_test_top.env.pred [PREDICTOR] a: 1011, b: 0110, c: 0
# UVM_INFO monitor.svh(34) @ 130000: uvm_test_top.env.agt.mon [MONITOR] vif.check = 1
# UVM_INFO @ 130000: uvm_test_top.env.comp [Comparator] 
# expected:
# a: 1011
# b: 0110
# carry_in: 0
# sum: 0001
# carry_out: 1
# ~~~~~~~~~~~~~~~~~~
# actual:
# sum: 0001
# carry_out: 1
# 
# UVM_INFO @ 130000: uvm_test_top.env.comp [Comparator] Data Match
# UVM_INFO sequence.svh(23) @ 130000: uvm_test_top.env.agt.sqr@@seq [SEQUENCE] Send transaction to driver
# UVM_INFO sequence.svh(24) @ 130000: uvm_test_top.env.agt.sqr@@seq [SEQUENCE] Sent: a: 0000, b: 0010, c: 0
# UVM_INFO driver.svh(32) @ 130000: uvm_test_top.env.agt.drv [DRIVER] transaction received by driver
# UVM_INFO driver.svh(37) @ 150000: uvm_test_top.env.agt.drv [DRIVER] Driver: a: 0000, b: 0010, cin: 0
# UVM_INFO transaction.svh(34) @ 150000: reporter@@tx [TRANSACTION] a = 0000, tx.a = 1011, b = 0010, tx.b = 0110, carry_in = 0, tx.carry_in = 0
# UVM_INFO monitor.svh(45) @ 150000: uvm_test_top.env.agt.mon [MONITOR] New Transaction a: 0000, b: 0010, c: 0
# UVM_INFO predictor.svh(37) @ 150000: uvm_test_top.env.pred [PREDICTOR] 5 bit sum: 00010
# UVM_INFO predictor.svh(53) @ 150000: uvm_test_top.env.pred [PREDICTOR] a: 0000, b: 0010, c: 0
# UVM_INFO monitor.svh(34) @ 190000: uvm_test_top.env.agt.mon [MONITOR] vif.check = 1
# UVM_INFO @ 190000: uvm_test_top.env.comp [Comparator] 
# expected:
# a: 0000
# b: 0010
# carry_in: 0
# sum: 0010
# carry_out: 0
# ~~~~~~~~~~~~~~~~~~
# actual:
# sum: 0010
# carry_out: 0
# 
# UVM_INFO @ 190000: uvm_test_top.env.comp [Comparator] Data Match
# UVM_INFO sequence.svh(23) @ 190000: uvm_test_top.env.agt.sqr@@seq [SEQUENCE] Send transaction to driver
# UVM_INFO sequence.svh(24) @ 190000: uvm_test_top.env.agt.sqr@@seq [SEQUENCE] Sent: a: 0111, b: 1001, c: 0
# UVM_INFO driver.svh(32) @ 190000: uvm_test_top.env.agt.drv [DRIVER] transaction received by driver
# UVM_INFO driver.svh(37) @ 210000: uvm_test_top.env.agt.drv [DRIVER] Driver: a: 0111, b: 1001, cin: 0
# UVM_INFO transaction.svh(34) @ 210000: reporter@@tx [TRANSACTION] a = 0111, tx.a = 0000, b = 1001, tx.b = 0010, carry_in = 0, tx.carry_in = 0
# UVM_INFO monitor.svh(45) @ 210000: uvm_test_top.env.agt.mon [MONITOR] New Transaction a: 0111, b: 1001, c: 0
# UVM_INFO predictor.svh(37) @ 210000: uvm_test_top.env.pred [PREDICTOR] 5 bit sum: 10000
# UVM_INFO predictor.svh(53) @ 210000: uvm_test_top.env.pred [PREDICTOR] a: 0111, b: 1001, c: 0
# UVM_INFO monitor.svh(34) @ 250000: uvm_test_top.env.agt.mon [MONITOR] vif.check = 1
# UVM_INFO @ 250000: uvm_test_top.env.comp [Comparator] 
# expected:
# a: 0111
# b: 1001
# carry_in: 0
# sum: 0000
# carry_out: 1
# ~~~~~~~~~~~~~~~~~~
# actual:
# sum: 0000
# carry_out: 1
# 
# UVM_INFO @ 250000: uvm_test_top.env.comp [Comparator] Data Match
# UVM_INFO sequence.svh(23) @ 250000: uvm_test_top.env.agt.sqr@@seq [SEQUENCE] Send transaction to driver
# UVM_INFO sequence.svh(24) @ 250000: uvm_test_top.env.agt.sqr@@seq [SEQUENCE] Sent: a: 1111, b: 0111, c: 0
# UVM_INFO driver.svh(32) @ 250000: uvm_test_top.env.agt.drv [DRIVER] transaction received by driver
# UVM_INFO driver.svh(37) @ 270000: uvm_test_top.env.agt.drv [DRIVER] Driver: a: 1111, b: 0111, cin: 0
# UVM_INFO transaction.svh(34) @ 270000: reporter@@tx [TRANSACTION] a = 1111, tx.a = 0111, b = 0111, tx.b = 1001, carry_in = 0, tx.carry_in = 0
# UVM_INFO monitor.svh(45) @ 270000: uvm_test_top.env.agt.mon [MONITOR] New Transaction a: 1111, b: 0111, c: 0
# UVM_INFO predictor.svh(37) @ 270000: uvm_test_top.env.pred [PREDICTOR] 5 bit sum: 10110
# UVM_INFO predictor.svh(53) @ 270000: uvm_test_top.env.pred [PREDICTOR] a: 1111, b: 0111, c: 0
# UVM_INFO monitor.svh(34) @ 310000: uvm_test_top.env.agt.mon [MONITOR] vif.check = 1
# UVM_INFO @ 310000: uvm_test_top.env.comp [Comparator] 
# expected:
# a: 1111
# b: 0111
# carry_in: 0
# sum: 0110
# carry_out: 1
# ~~~~~~~~~~~~~~~~~~
# actual:
# sum: 0110
# carry_out: 1
# 
# UVM_INFO @ 310000: uvm_test_top.env.comp [Comparator] Data Match
# UVM_INFO sequence.svh(23) @ 310000: uvm_test_top.env.agt.sqr@@seq [SEQUENCE] Send transaction to driver
# UVM_INFO sequence.svh(24) @ 310000: uvm_test_top.env.agt.sqr@@seq [SEQUENCE] Sent: a: 1100, b: 0011, c: 0
# UVM_INFO driver.svh(32) @ 310000: uvm_test_top.env.agt.drv [DRIVER] transaction received by driver
# UVM_INFO driver.svh(37) @ 330000: uvm_test_top.env.agt.drv [DRIVER] Driver: a: 1100, b: 0011, cin: 0
# UVM_INFO transaction.svh(34) @ 330000: reporter@@tx [TRANSACTION] a = 1100, tx.a = 1111, b = 0011, tx.b = 0111, carry_in = 0, tx.carry_in = 0
# UVM_INFO monitor.svh(45) @ 330000: uvm_test_top.env.agt.mon [MONITOR] New Transaction a: 1100, b: 0011, c: 0
# UVM_INFO predictor.svh(37) @ 330000: uvm_test_top.env.pred [PREDICTOR] 5 bit sum: 01111
# UVM_INFO predictor.svh(53) @ 330000: uvm_test_top.env.pred [PREDICTOR] a: 1100, b: 0011, c: 0
# UVM_INFO monitor.svh(34) @ 370000: uvm_test_top.env.agt.mon [MONITOR] vif.check = 1
# UVM_INFO @ 370000: uvm_test_top.env.comp [Comparator] 
# expected:
# a: 1100
# b: 0011
# carry_in: 0
# sum: 1111
# carry_out: 0
# ~~~~~~~~~~~~~~~~~~
# actual:
# sum: 1111
# carry_out: 0
# 
# UVM_INFO @ 370000: uvm_test_top.env.comp [Comparator] Data Match
# UVM_INFO sequence.svh(23) @ 370000: uvm_test_top.env.agt.sqr@@seq [SEQUENCE] Send transaction to driver
# UVM_INFO sequence.svh(24) @ 370000: uvm_test_top.env.agt.sqr@@seq [SEQUENCE] Sent: a: 0010, b: 0001, c: 0
# UVM_INFO driver.svh(32) @ 370000: uvm_test_top.env.agt.drv [DRIVER] transaction received by driver
# UVM_INFO driver.svh(37) @ 390000: uvm_test_top.env.agt.drv [DRIVER] Driver: a: 0010, b: 0001, cin: 0
# UVM_INFO transaction.svh(34) @ 390000: reporter@@tx [TRANSACTION] a = 0010, tx.a = 1100, b = 0001, tx.b = 0011, carry_in = 0, tx.carry_in = 0
# UVM_INFO monitor.svh(45) @ 390000: uvm_test_top.env.agt.mon [MONITOR] New Transaction a: 0010, b: 0001, c: 0
# UVM_INFO predictor.svh(37) @ 390000: uvm_test_top.env.pred [PREDICTOR] 5 bit sum: 00011
# UVM_INFO predictor.svh(53) @ 390000: uvm_test_top.env.pred [PREDICTOR] a: 0010, b: 0001, c: 0
# UVM_INFO monitor.svh(34) @ 430000: uvm_test_top.env.agt.mon [MONITOR] vif.check = 1
# UVM_INFO @ 430000: uvm_test_top.env.comp [Comparator] 
# expected:
# a: 0010
# b: 0001
# carry_in: 0
# sum: 0011
# carry_out: 0
# ~~~~~~~~~~~~~~~~~~
# actual:
# sum: 0011
# carry_out: 0
# 
# UVM_INFO @ 430000: uvm_test_top.env.comp [Comparator] Data Match
# UVM_INFO sequence.svh(23) @ 430000: uvm_test_top.env.agt.sqr@@seq [SEQUENCE] Send transaction to driver
# UVM_INFO sequence.svh(24) @ 430000: uvm_test_top.env.agt.sqr@@seq [SEQUENCE] Sent: a: 0001, b: 1100, c: 0
# UVM_INFO driver.svh(32) @ 430000: uvm_test_top.env.agt.drv [DRIVER] transaction received by driver
# UVM_INFO driver.svh(37) @ 450000: uvm_test_top.env.agt.drv [DRIVER] Driver: a: 0001, b: 1100, cin: 0
# UVM_INFO transaction.svh(34) @ 450000: reporter@@tx [TRANSACTION] a = 0001, tx.a = 0010, b = 1100, tx.b = 0001, carry_in = 0, tx.carry_in = 0
# UVM_INFO monitor.svh(45) @ 450000: uvm_test_top.env.agt.mon [MONITOR] New Transaction a: 0001, b: 1100, c: 0
# UVM_INFO predictor.svh(37) @ 450000: uvm_test_top.env.pred [PREDICTOR] 5 bit sum: 01101
# UVM_INFO predictor.svh(53) @ 450000: uvm_test_top.env.pred [PREDICTOR] a: 0001, b: 1100, c: 0
# UVM_INFO monitor.svh(34) @ 490000: uvm_test_top.env.agt.mon [MONITOR] vif.check = 1
# UVM_INFO @ 490000: uvm_test_top.env.comp [Comparator] 
# expected:
# a: 0001
# b: 1100
# carry_in: 0
# sum: 1101
# carry_out: 0
# ~~~~~~~~~~~~~~~~~~
# actual:
# sum: 1101
# carry_out: 0
# 
# UVM_INFO @ 490000: uvm_test_top.env.comp [Comparator] Data Match
# UVM_INFO sequence.svh(23) @ 490000: uvm_test_top.env.agt.sqr@@seq [SEQUENCE] Send transaction to driver
# UVM_INFO sequence.svh(24) @ 490000: uvm_test_top.env.agt.sqr@@seq [SEQUENCE] Sent: a: 0110, b: 1101, c: 1
# UVM_INFO driver.svh(32) @ 490000: uvm_test_top.env.agt.drv [DRIVER] transaction received by driver
# UVM_INFO driver.svh(37) @ 510000: uvm_test_top.env.agt.drv [DRIVER] Driver: a: 0110, b: 1101, cin: 1
# UVM_INFO transaction.svh(34) @ 510000: reporter@@tx [TRANSACTION] a = 0110, tx.a = 0001, b = 1101, tx.b = 1100, carry_in = 1, tx.carry_in = 0
# UVM_INFO monitor.svh(45) @ 510000: uvm_test_top.env.agt.mon [MONITOR] New Transaction a: 0110, b: 1101, c: 1
# UVM_INFO predictor.svh(37) @ 510000: uvm_test_top.env.pred [PREDICTOR] 5 bit sum: 10100
# UVM_INFO predictor.svh(53) @ 510000: uvm_test_top.env.pred [PREDICTOR] a: 0110, b: 1101, c: 1
# UVM_INFO monitor.svh(34) @ 550000: uvm_test_top.env.agt.mon [MONITOR] vif.check = 1
# UVM_INFO @ 550000: uvm_test_top.env.comp [Comparator] 
# expected:
# a: 0110
# b: 1101
# carry_in: 1
# sum: 0100
# carry_out: 1
# ~~~~~~~~~~~~~~~~~~
# actual:
# sum: 0100
# carry_out: 1
# 
# UVM_INFO @ 550000: uvm_test_top.env.comp [Comparator] Data Match
# UVM_INFO sequence.svh(23) @ 550000: uvm_test_top.env.agt.sqr@@seq [SEQUENCE] Send transaction to driver
# UVM_INFO sequence.svh(24) @ 550000: uvm_test_top.env.agt.sqr@@seq [SEQUENCE] Sent: a: 0010, b: 1010, c: 0
# UVM_INFO driver.svh(32) @ 550000: uvm_test_top.env.agt.drv [DRIVER] transaction received by driver
# UVM_INFO driver.svh(37) @ 570000: uvm_test_top.env.agt.drv [DRIVER] Driver: a: 0010, b: 1010, cin: 0
# UVM_INFO transaction.svh(34) @ 570000: reporter@@tx [TRANSACTION] a = 0010, tx.a = 0110, b = 1010, tx.b = 1101, carry_in = 0, tx.carry_in = 1
# UVM_INFO monitor.svh(45) @ 570000: uvm_test_top.env.agt.mon [MONITOR] New Transaction a: 0010, b: 1010, c: 0
# UVM_INFO predictor.svh(37) @ 570000: uvm_test_top.env.pred [PREDICTOR] 5 bit sum: 01100
# UVM_INFO predictor.svh(53) @ 570000: uvm_test_top.env.pred [PREDICTOR] a: 0010, b: 1010, c: 0
# UVM_INFO monitor.svh(34) @ 610000: uvm_test_top.env.agt.mon [MONITOR] vif.check = 1
# UVM_INFO @ 610000: uvm_test_top.env.comp [Comparator] 
# expected:
# a: 0010
# b: 1010
# carry_in: 0
# sum: 1100
# carry_out: 0
# ~~~~~~~~~~~~~~~~~~
# actual:
# sum: 1100
# carry_out: 0
# 
# UVM_INFO @ 610000: uvm_test_top.env.comp [Comparator] Data Match
# UVM_INFO sequence.svh(23) @ 610000: uvm_test_top.env.agt.sqr@@seq [SEQUENCE] Send transaction to driver
# UVM_INFO sequence.svh(24) @ 610000: uvm_test_top.env.agt.sqr@@seq [SEQUENCE] Sent: a: 1000, b: 1011, c: 0
# UVM_INFO driver.svh(32) @ 610000: uvm_test_top.env.agt.drv [DRIVER] transaction received by driver
# UVM_INFO driver.svh(37) @ 630000: uvm_test_top.env.agt.drv [DRIVER] Driver: a: 1000, b: 1011, cin: 0
# UVM_INFO transaction.svh(34) @ 630000: reporter@@tx [TRANSACTION] a = 1000, tx.a = 0010, b = 1011, tx.b = 1010, carry_in = 0, tx.carry_in = 0
# UVM_INFO monitor.svh(45) @ 630000: uvm_test_top.env.agt.mon [MONITOR] New Transaction a: 1000, b: 1011, c: 0
# UVM_INFO predictor.svh(37) @ 630000: uvm_test_top.env.pred [PREDICTOR] 5 bit sum: 10011
# UVM_INFO predictor.svh(53) @ 630000: uvm_test_top.env.pred [PREDICTOR] a: 1000, b: 1011, c: 0
# UVM_INFO monitor.svh(34) @ 670000: uvm_test_top.env.agt.mon [MONITOR] vif.check = 1
# UVM_INFO @ 670000: uvm_test_top.env.comp [Comparator] 
# expected:
# a: 1000
# b: 1011
# carry_in: 0
# sum: 0011
# carry_out: 1
# ~~~~~~~~~~~~~~~~~~
# actual:
# sum: 0011
# carry_out: 1
# 
# UVM_INFO @ 670000: uvm_test_top.env.comp [Comparator] Data Match
# UVM_INFO sequence.svh(23) @ 670000: uvm_test_top.env.agt.sqr@@seq [SEQUENCE] Send transaction to driver
# UVM_INFO sequence.svh(24) @ 670000: uvm_test_top.env.agt.sqr@@seq [SEQUENCE] Sent: a: 1011, b: 1001, c: 1
# UVM_INFO driver.svh(32) @ 670000: uvm_test_top.env.agt.drv [DRIVER] transaction received by driver
# UVM_INFO driver.svh(37) @ 690000: uvm_test_top.env.agt.drv [DRIVER] Driver: a: 1011, b: 1001, cin: 1
# UVM_INFO transaction.svh(34) @ 690000: reporter@@tx [TRANSACTION] a = 1011, tx.a = 1000, b = 1001, tx.b = 1011, carry_in = 1, tx.carry_in = 0
# UVM_INFO monitor.svh(45) @ 690000: uvm_test_top.env.agt.mon [MONITOR] New Transaction a: 1011, b: 1001, c: 1
# UVM_INFO predictor.svh(37) @ 690000: uvm_test_top.env.pred [PREDICTOR] 5 bit sum: 10101
# UVM_INFO predictor.svh(53) @ 690000: uvm_test_top.env.pred [PREDICTOR] a: 1011, b: 1001, c: 1
# UVM_INFO monitor.svh(34) @ 730000: uvm_test_top.env.agt.mon [MONITOR] vif.check = 1
# UVM_INFO @ 730000: uvm_test_top.env.comp [Comparator] 
# expected:
# a: 1011
# b: 1001
# carry_in: 1
# sum: 0101
# carry_out: 1
# ~~~~~~~~~~~~~~~~~~
# actual:
# sum: 0101
# carry_out: 1
# 
# UVM_INFO @ 730000: uvm_test_top.env.comp [Comparator] Data Match
# UVM_INFO sequence.svh(23) @ 730000: uvm_test_top.env.agt.sqr@@seq [SEQUENCE] Send transaction to driver
# UVM_INFO sequence.svh(24) @ 730000: uvm_test_top.env.agt.sqr@@seq [SEQUENCE] Sent: a: 0111, b: 1101, c: 0
# UVM_INFO driver.svh(32) @ 730000: uvm_test_top.env.agt.drv [DRIVER] transaction received by driver
# UVM_INFO driver.svh(37) @ 750000: uvm_test_top.env.agt.drv [DRIVER] Driver: a: 0111, b: 1101, cin: 0
# UVM_INFO transaction.svh(34) @ 750000: reporter@@tx [TRANSACTION] a = 0111, tx.a = 1011, b = 1101, tx.b = 1001, carry_in = 0, tx.carry_in = 1
# UVM_INFO monitor.svh(45) @ 750000: uvm_test_top.env.agt.mon [MONITOR] New Transaction a: 0111, b: 1101, c: 0
# UVM_INFO predictor.svh(37) @ 750000: uvm_test_top.env.pred [PREDICTOR] 5 bit sum: 10100
# UVM_INFO predictor.svh(53) @ 750000: uvm_test_top.env.pred [PREDICTOR] a: 0111, b: 1101, c: 0
# UVM_INFO monitor.svh(34) @ 790000: uvm_test_top.env.agt.mon [MONITOR] vif.check = 1
# UVM_INFO @ 790000: uvm_test_top.env.comp [Comparator] 
# expected:
# a: 0111
# b: 1101
# carry_in: 0
# sum: 0100
# carry_out: 1
# ~~~~~~~~~~~~~~~~~~
# actual:
# sum: 0100
# carry_out: 1
# 
# UVM_INFO @ 790000: uvm_test_top.env.comp [Comparator] Data Match
# UVM_INFO sequence.svh(23) @ 790000: uvm_test_top.env.agt.sqr@@seq [SEQUENCE] Send transaction to driver
# UVM_INFO sequence.svh(24) @ 790000: uvm_test_top.env.agt.sqr@@seq [SEQUENCE] Sent: a: 0001, b: 1111, c: 0
# UVM_INFO driver.svh(32) @ 790000: uvm_test_top.env.agt.drv [DRIVER] transaction received by driver
# UVM_INFO driver.svh(37) @ 810000: uvm_test_top.env.agt.drv [DRIVER] Driver: a: 0001, b: 1111, cin: 0
# UVM_INFO transaction.svh(34) @ 810000: reporter@@tx [TRANSACTION] a = 0001, tx.a = 0111, b = 1111, tx.b = 1101, carry_in = 0, tx.carry_in = 0
# UVM_INFO monitor.svh(45) @ 810000: uvm_test_top.env.agt.mon [MONITOR] New Transaction a: 0001, b: 1111, c: 0
# UVM_INFO predictor.svh(37) @ 810000: uvm_test_top.env.pred [PREDICTOR] 5 bit sum: 10000
# UVM_INFO predictor.svh(53) @ 810000: uvm_test_top.env.pred [PREDICTOR] a: 0001, b: 1111, c: 0
# UVM_INFO monitor.svh(34) @ 850000: uvm_test_top.env.agt.mon [MONITOR] vif.check = 1
# UVM_INFO @ 850000: uvm_test_top.env.comp [Comparator] 
# expected:
# a: 0001
# b: 1111
# carry_in: 0
# sum: 0000
# carry_out: 1
# ~~~~~~~~~~~~~~~~~~
# actual:
# sum: 0000
# carry_out: 1
# 
# UVM_INFO @ 850000: uvm_test_top.env.comp [Comparator] Data Match
# UVM_INFO sequence.svh(23) @ 850000: uvm_test_top.env.agt.sqr@@seq [SEQUENCE] Send transaction to driver
# UVM_INFO sequence.svh(24) @ 850000: uvm_test_top.env.agt.sqr@@seq [SEQUENCE] Sent: a: 0000, b: 1000, c: 1
# UVM_INFO driver.svh(32) @ 850000: uvm_test_top.env.agt.drv [DRIVER] transaction received by driver
# UVM_INFO driver.svh(37) @ 870000: uvm_test_top.env.agt.drv [DRIVER] Driver: a: 0000, b: 1000, cin: 1
# UVM_INFO transaction.svh(34) @ 870000: reporter@@tx [TRANSACTION] a = 0000, tx.a = 0001, b = 1000, tx.b = 1111, carry_in = 1, tx.carry_in = 0
# UVM_INFO monitor.svh(45) @ 870000: uvm_test_top.env.agt.mon [MONITOR] New Transaction a: 0000, b: 1000, c: 1
# UVM_INFO predictor.svh(37) @ 870000: uvm_test_top.env.pred [PREDICTOR] 5 bit sum: 01001
# UVM_INFO predictor.svh(53) @ 870000: uvm_test_top.env.pred [PREDICTOR] a: 0000, b: 1000, c: 1
# UVM_INFO monitor.svh(34) @ 910000: uvm_test_top.env.agt.mon [MONITOR] vif.check = 1
# UVM_INFO @ 910000: uvm_test_top.env.comp [Comparator] 
# expected:
# a: 0000
# b: 1000
# carry_in: 1
# sum: 1001
# carry_out: 0
# ~~~~~~~~~~~~~~~~~~
# actual:
# sum: 1001
# carry_out: 0
# 
# UVM_INFO @ 910000: uvm_test_top.env.comp [Comparator] Data Match
# UVM_INFO sequence.svh(23) @ 910000: uvm_test_top.env.agt.sqr@@seq [SEQUENCE] Send transaction to driver
# UVM_INFO sequence.svh(24) @ 910000: uvm_test_top.env.agt.sqr@@seq [SEQUENCE] Sent: a: 0000, b: 0110, c: 1
# UVM_INFO driver.svh(32) @ 910000: uvm_test_top.env.agt.drv [DRIVER] transaction received by driver
# UVM_INFO driver.svh(37) @ 930000: uvm_test_top.env.agt.drv [DRIVER] Driver: a: 0000, b: 0110, cin: 1
# UVM_INFO transaction.svh(34) @ 930000: reporter@@tx [TRANSACTION] a = 0000, tx.a = 0000, b = 0110, tx.b = 1000, carry_in = 1, tx.carry_in = 1
# UVM_INFO monitor.svh(45) @ 930000: uvm_test_top.env.agt.mon [MONITOR] New Transaction a: 0000, b: 0110, c: 1
# UVM_INFO predictor.svh(37) @ 930000: uvm_test_top.env.pred [PREDICTOR] 5 bit sum: 00111
# UVM_INFO predictor.svh(53) @ 930000: uvm_test_top.env.pred [PREDICTOR] a: 0000, b: 0110, c: 1
# UVM_INFO monitor.svh(34) @ 970000: uvm_test_top.env.agt.mon [MONITOR] vif.check = 1
# UVM_INFO @ 970000: uvm_test_top.env.comp [Comparator] 
# expected:
# a: 0000
# b: 0110
# carry_in: 1
# sum: 0111
# carry_out: 0
# ~~~~~~~~~~~~~~~~~~
# actual:
# sum: 0111
# carry_out: 0
# 
# UVM_INFO @ 970000: uvm_test_top.env.comp [Comparator] Data Match
# UVM_INFO sequence.svh(23) @ 970000: uvm_test_top.env.agt.sqr@@seq [SEQUENCE] Send transaction to driver
# UVM_INFO sequence.svh(24) @ 970000: uvm_test_top.env.agt.sqr@@seq [SEQUENCE] Sent: a: 1000, b: 0101, c: 1
# UVM_INFO driver.svh(32) @ 970000: uvm_test_top.env.agt.drv [DRIVER] transaction received by driver
# UVM_INFO driver.svh(37) @ 990000: uvm_test_top.env.agt.drv [DRIVER] Driver: a: 1000, b: 0101, cin: 1
# UVM_INFO transaction.svh(34) @ 990000: reporter@@tx [TRANSACTION] a = 1000, tx.a = 0000, b = 0101, tx.b = 0110, carry_in = 1, tx.carry_in = 1
# UVM_INFO monitor.svh(45) @ 990000: uvm_test_top.env.agt.mon [MONITOR] New Transaction a: 1000, b: 0101, c: 1
# UVM_INFO predictor.svh(37) @ 990000: uvm_test_top.env.pred [PREDICTOR] 5 bit sum: 01110
# UVM_INFO predictor.svh(53) @ 990000: uvm_test_top.env.pred [PREDICTOR] a: 1000, b: 0101, c: 1
# UVM_INFO monitor.svh(34) @ 1030000: uvm_test_top.env.agt.mon [MONITOR] vif.check = 1
# UVM_INFO @ 1030000: uvm_test_top.env.comp [Comparator] 
# expected:
# a: 1000
# b: 0101
# carry_in: 1
# sum: 1110
# carry_out: 0
# ~~~~~~~~~~~~~~~~~~
# actual:
# sum: 1110
# carry_out: 0
# 
# UVM_INFO @ 1030000: uvm_test_top.env.comp [Comparator] Data Match
# UVM_INFO sequence.svh(23) @ 1030000: uvm_test_top.env.agt.sqr@@seq [SEQUENCE] Send transaction to driver
# UVM_INFO sequence.svh(24) @ 1030000: uvm_test_top.env.agt.sqr@@seq [SEQUENCE] Sent: a: 1110, b: 1111, c: 1
# UVM_INFO driver.svh(32) @ 1030000: uvm_test_top.env.agt.drv [DRIVER] transaction received by driver
# UVM_INFO driver.svh(37) @ 1050000: uvm_test_top.env.agt.drv [DRIVER] Driver: a: 1110, b: 1111, cin: 1
# UVM_INFO transaction.svh(34) @ 1050000: reporter@@tx [TRANSACTION] a = 1110, tx.a = 1000, b = 1111, tx.b = 0101, carry_in = 1, tx.carry_in = 1
# UVM_INFO monitor.svh(45) @ 1050000: uvm_test_top.env.agt.mon [MONITOR] New Transaction a: 1110, b: 1111, c: 1
# UVM_INFO predictor.svh(37) @ 1050000: uvm_test_top.env.pred [PREDICTOR] 5 bit sum: 11110
# UVM_INFO predictor.svh(53) @ 1050000: uvm_test_top.env.pred [PREDICTOR] a: 1110, b: 1111, c: 1
# UVM_INFO monitor.svh(34) @ 1090000: uvm_test_top.env.agt.mon [MONITOR] vif.check = 1
# UVM_INFO @ 1090000: uvm_test_top.env.comp [Comparator] 
# expected:
# a: 1110
# b: 1111
# carry_in: 1
# sum: 1110
# carry_out: 1
# ~~~~~~~~~~~~~~~~~~
# actual:
# sum: 1110
# carry_out: 1
# 
# UVM_INFO @ 1090000: uvm_test_top.env.comp [Comparator] Data Match
